﻿　┏┓　　　　　　　　　　使　い　方　　　　　　　　　　　　┏┓
　┗□───────────────────────────□┛



┏…………………………………………………………………………………┓
：　ステージ内の天井と床以外の全てのものにボーンが入っています。：
：　また全ての物が【材質モーフ】で消せます。　　　　　　　　　　：
：　シャンデリアはAutoLuminous対応です。　　　　　　　　　　　　：
：　シャンデリアの高さ調整可能です。　　　　　　　　　　　　　　：
┗…………………………………………………………………………………┛





━━━━━━━━━━━━━━━━━━━━━━━━━━━━━━━━━━
那由他製作所　http://www46.atwiki.jp/nayutaworksltd
--------------------------------------------------------------------
連絡先　　　　rs10xx78@gmail.com
━━━━━━━━━━━━━━━━━━━━━━━━━━━━━━━━━━


